id,sku,products_price,products_quantity,products_image,products_date_added,products_last_modified,products_date_available,products_weight,products_status,products_tax_class_id,manufacturers_id,products_ordered,stock,products_sort,products_name,language_id,products_description,products_url,products_viewed,short_desc,categories_id,use_config_manage_stock,manage_stock,is_in_stock,news_from_date,news_to_date,country,special_from_date,special_to_date
318,10037,269,25,20.jpg,2015-11-25 05:31:24,2015-12-14 04:22:49,NULL,20,1,4,10,2,1,0,Test1,1,Test1,Test1,138,Test1,3,1,1,1,21.6.2017,30.7.2017,US,21.6.2017,30.7.2017
266,10036,397,25,20.jpg,2014-06-04 19:49:19,2016-10-03 16:22:30,NULL,20,1,4,10,36,1,0,Test2,1,Test2,Test2,8694,Test2,3,1,1,1,21.6.2017,30.7.2017,US,21.6.2017,30.7.2017
,,,,,,,,,,,,,,,,,,,,,,,,, , ,,,
